…
fisheries_tidy$catch <- as.numeric(fisheries_tidy$catch)
```

3. How many countries are represented in the data? Provide a count and list their names.

```r
count(fisheries_tidy, country)
```

```
## # A tibble: 203 x 2
##    country                 n
##    <fct>               <int>
##  1 Albania               934
##  2 Algeria              1561
##  3 American Samoa        556
##  4 Angola               2119
##  5 Anguilla              129
##  6 Antigua and Barbuda   356
##  7 Argentina            3403
##  8 Aruba                 172
##  9 Australia            8183
## 10 Bahamas               423
## # ... with 193 more rows
```
…
6. Which country had the largest overall catch in the year 2000?

```r
fisheries_tidy %>% 
  group_by(country) %>% filter(year==2000) %>% 
  summarize(overall_catch=sum(catch, na.rm=TRUE)) %>% 
  arrange(desc(overall_catch))
```

```
## # A tibble: 193 x 2
##    country                  overall_catch
##    <fct>                            <dbl>
##  1 China                            25899
##  2 Russian Federation               12181
##  3 United States of America         11762
##  4 Japan                             8510
##  5 Indonesia                         8341
##  6 Peru                              7443
##  7 Chile                             6906
##  8 India                             6351
##  9 Thailand                          6243
## 10 Korea, Republic of                6124
## # ... with 183 more rows
```


7. Which country caught the most sardines (_Sardina pilchardus_) between the years 1990-2000?

```r
fisheries_tidy %>% filter(year>=1990 & year<=2000) %>% 
  filter(asfis_species_name=="Sardina pilchardus") %>% 
  group_by(country) %>% 
  summarize(overall_sardines=sum(catch, na.rm=TRUE)) %>% 
  arrange(desc(overall_sardines))
```

```
## # A tibble: 37 x 2
##    country               overall_sardines
##    <fct>                            <dbl>
##  1 Morocco                           7470
##  2 Spain                             3507
##  3 Russian Federation                1639
##  4 Ukraine                           1030
##  5 France                             966
##  6 Portugal                           818
##  7 Greece                             528
##  8 Italy                              507
##  9 Serbia and Montenegro              478
## 10 Denmark                            477
## # ... with 27 more rows
```
…
9. Which species had the highest catch total between 2008-2012? (hint: Osteichthyes is not a species)

```r
fisheries_tidy %>% 
  filter(year>=2008 & year<=2012)%>% 
  group_by(asfis_species_name) %>% 
  summarize(catch_total=sum(catch, na.rm=T)) %>% 
  arrange(desc(catch_total))
```

```
## # A tibble: 1,472 x 2
##    asfis_species_name    catch_total
##    <chr>                       <dbl>
##  1 Osteichthyes               107808
##  2 Theragra chalcogramma       41075
##  3 Engraulis ringens           35523
##  4 Katsuwonus pelamis          32153
##  5 Trichiurus lepturus         30400
##  6 Clupea harengus             28527
##  7 Thunnus albacares           20119
##  8 Scomber japonicus           14723
##  9 Gadus morhua                13253
## 10 Thunnus alalunga            12019
## # ... with 1,462 more rows
```
Theragra chalcogramm (aka the Alaskan Pollock)

10. Use the data to do at least one analysis of your choice.


```r
#number of sharks, rays, and chimaeras caught in Albania per year?
fisheries_tidy %>%
  filter(country=="Albania" & isscaap_taxonomic_group=="Sharks, rays, chimaeras" & year>=1989) %>% 
  group_by(year) %>% 
  summarize(total_danger_fish=sum(catch,na.rm=T))
```

```
## # A tibble: 24 x 2
##     year total_danger_fish
##    <dbl>             <dbl>
##  1  1989                58
##  2  1990                20
##  3  1991                10
##  4  1992                10
##  5  1993                10
##  6  1994                15
##  7  1995                88
##  8  1996               153
##  9  1997                60
## 10  1998               129
## # ... with 14 more rows
```
…
