…
2. Notice that we have some neutral superheros! Who are they?

```r
superhero_info %>% filter(alignment=="neutral")
```

```
## # A tibble: 24 x 10
##    name  gender eye_color race  hair_color height publisher skin_color alignment
##    <chr> <chr>  <chr>     <chr> <chr>       <dbl> <chr>     <chr>      <chr>    
##  1 Biza~ Male   black     Biza~ Black         191 DC Comics white      neutral  
##  2 Blac~ Male   <NA>      God ~ <NA>           NA DC Comics <NA>       neutral  
##  3 Capt~ Male   brown     Human Brown          NA DC Comics <NA>       neutral  
##  4 Copy~ Female red       Muta~ White         183 Marvel C~ blue       neutral  
##  5 Dead~ Male   brown     Muta~ No Hair       188 Marvel C~ <NA>       neutral  
##  6 Deat~ Male   blue      Human White         193 DC Comics <NA>       neutral  
##  7 Etri~ Male   red       Demon No Hair       193 DC Comics yellow     neutral  
##  8 Gala~ Male   black     Cosm~ Black         876 Marvel C~ <NA>       neutral  
##  9 Glad~ Male   blue      Stro~ Blue          198 Marvel C~ purple     neutral  
## 10 Indi~ Female <NA>      Alien Purple         NA DC Comics <NA>       neutral  
## # ... with 14 more rows, and 1 more variable: weight <dbl>
```

## `superhero_info`
3. Let's say we are only interested in the variables name, alignment, and "race". How would you isolate these variables from `superhero_info`?

```r
superhero_info %>% select(name, alignment,race)
```

```
## # A tibble: 734 x 3
##    name          alignment race             
##    <chr>         <chr>     <chr>            
##  1 A-Bomb        good      Human            
##  2 Abe Sapien    good      Icthyo Sapien    
##  3 Abin Sur      good      Ungaran          
##  4 Abomination   bad       Human / Radiation
##  5 Abraxas       bad       Cosmic Entity    
##  6 Absorbing Man bad       Human            
##  7 Adam Monroe   good      <NA>             
##  8 Adam Strange  good      Human            
##  9 Agent 13      good      <NA>             
## 10 Agent Bob     good      Human            
## # ... with 724 more rows
```

## Not Human
4. List all of the superheros that are not human.

```r
superhero_info %>% select(name, alignment,race) %>% filter(race=="Human")
```

```
## # A tibble: 208 x 3
##    name              alignment race 
##    <chr>             <chr>     <chr>
##  1 A-Bomb            good      Human
##  2 Absorbing Man     bad       Human
##  3 Adam Strange      good      Human
##  4 Agent Bob         good      Human
##  5 Alex Mercer       bad       Human
##  6 Alfred Pennyworth good      Human
##  7 Ammo              bad       Human
##  8 Animal Man        good      Human
##  9 Ant-Man           good      Human
## 10 Ant-Man II        good      Human
## # ... with 198 more rows
```

## Good and Evil
5. Let's make two different data frames, one focused on the "good guys" and another focused on the "bad guys".

```r
good_guys <- filter(superhero_info, alignment=="good")
good_guys
```

```
## # A tibble: 496 x 10
##    name  gender eye_color race  hair_color height publisher skin_color alignment
##    <chr> <chr>  <chr>     <chr> <chr>       <dbl> <chr>     <chr>      <chr>    
##  1 A-Bo~ Male   yellow    Human No Hair       203 Marvel C~ <NA>       good     
##  2 Abe ~ Male   blue      Icth~ No Hair       191 Dark Hor~ blue       good     
##  3 Abin~ Male   blue      Unga~ No Hair       185 DC Comics red        good     
##  4 Adam~ Male   blue      <NA>  Blond          NA NBC - He~ <NA>       good     
##  5 Adam~ Male   blue      Human Blond         185 DC Comics <NA>       good     
##  6 Agen~ Female blue      <NA>  Blond         173 Marvel C~ <NA>       good     
##  7 Agen~ Male   brown     Human Brown         178 Marvel C~ <NA>       good     
##  8 Agen~ Male   <NA>      <NA>  <NA>          191 Marvel C~ <NA>       good     
##  9 Alan~ Male   blue      <NA>  Blond         180 DC Comics <NA>       good     
## 10 Alex~ Male   <NA>      <NA>  <NA>           NA NBC - He~ <NA>       good     
## # ... with 486 more rows, and 1 more variable: weight <dbl>
```


```r
bad_guys <- filter(superhero_info, alignment=="bad")
bad_guys
```

```
## # A tibble: 207 x 10
##    name  gender eye_color race  hair_color height publisher skin_color alignment
##    <chr> <chr>  <chr>     <chr> <chr>       <dbl> <chr>     <chr>      <chr>    
##  1 Abom~ Male   green     Huma~ No Hair       203 Marvel C~ <NA>       bad      
##  2 Abra~ Male   blue      Cosm~ Black          NA Marvel C~ <NA>       bad      
##  3 Abso~ Male   blue      Human No Hair       193 Marvel C~ <NA>       bad      
##  4 Air-~ Male   blue      <NA>  White         188 Marvel C~ <NA>       bad      
##  5 Ajax  Male   brown     Cybo~ Black         193 Marvel C~ <NA>       bad      
##  6 Alex~ Male   <NA>      Human <NA>           NA Wildstorm <NA>       bad      
##  7 Alien Male   <NA>      Xeno~ No Hair       244 Dark Hor~ black      bad      
##  8 Amazo Male   red       Andr~ <NA>          257 DC Comics <NA>       bad      
##  9 Ammo  Male   brown     Human Black         188 Marvel C~ <NA>       bad      
## 10 Ange~ Female <NA>      <NA>  <NA>           NA Image Co~ <NA>       bad      
## # ... with 197 more rows, and 1 more variable: weight <dbl>
```
…
8. Among the bad guys, who are the male humans over 200 inches in height?

```r
bad_guys %>% filter(height>=200)
```

```
## # A tibble: 25 x 10
##    name  gender eye_color race  hair_color height publisher skin_color alignment
##    <chr> <chr>  <chr>     <chr> <chr>       <dbl> <chr>     <chr>      <chr>    
##  1 Abom~ Male   green     Huma~ No Hair       203 Marvel C~ <NA>       bad      
##  2 Alien Male   <NA>      Xeno~ No Hair       244 Dark Hor~ black      bad      
##  3 Amazo Male   red       Andr~ <NA>          257 DC Comics <NA>       bad      
##  4 Apoc~ Male   red       Muta~ Black         213 Marvel C~ grey       bad      
##  5 Bane  Male   <NA>      Human <NA>          203 DC Comics <NA>       bad      
##  6 Bloo~ Female blue      Human Brown         218 Marvel C~ <NA>       bad      
##  7 Dark~ Male   red       New ~ No Hair       267 DC Comics grey       bad      
##  8 Doct~ Male   brown     Human Brown         201 Marvel C~ <NA>       bad      
##  9 Doct~ Male   brown     <NA>  Brown         201 Marvel C~ <NA>       bad      
## 10 Doom~ Male   red       Alien White         244 DC Comics <NA>       bad      
## # ... with 15 more rows, and 1 more variable: weight <dbl>
```

9. OK, so are there more good guys or bad guys that are bald (personal interest)?

```r
good_guys %>% filter(hair_color=="No Hair")
```

```
## # A tibble: 37 x 10
##    name  gender eye_color race  hair_color height publisher skin_color alignment
##    <chr> <chr>  <chr>     <chr> <chr>       <dbl> <chr>     <chr>      <chr>    
##  1 A-Bo~ Male   yellow    Human No Hair       203 Marvel C~ <NA>       good     
##  2 Abe ~ Male   blue      Icth~ No Hair       191 Dark Hor~ blue       good     
##  3 Abin~ Male   blue      Unga~ No Hair       185 DC Comics red        good     
##  4 Beta~ Male   <NA>      <NA>  No Hair       201 Marvel C~ <NA>       good     
##  5 Bish~ Male   brown     Muta~ No Hair       198 Marvel C~ <NA>       good     
##  6 Blac~ Male   brown     <NA>  No Hair       185 DC Comics <NA>       good     
##  7 Blaq~ <NA>   black     <NA>  No Hair        NA Marvel C~ <NA>       good     
##  8 Bloo~ Male   black     Muta~ No Hair        NA Marvel C~ <NA>       good     
##  9 Crim~ Male   brown     <NA>  No Hair       180 Marvel C~ <NA>       good     
## 10 Dona~ Male   green     Muta~ No Hair        NA IDW Publ~ green      good     
## # ... with 27 more rows, and 1 more variable: weight <dbl>
```

```r
bad_guys %>% filter(hair_color=="No Hair")
```

```
## # A tibble: 35 x 10
##    name  gender eye_color race  hair_color height publisher skin_color alignment
##    <chr> <chr>  <chr>     <chr> <chr>       <dbl> <chr>     <chr>      <chr>    
##  1 Abom~ Male   green     Huma~ No Hair     203   Marvel C~ <NA>       bad      
##  2 Abso~ Male   blue      Human No Hair     193   Marvel C~ <NA>       bad      
##  3 Alien Male   <NA>      Xeno~ No Hair     244   Dark Hor~ black      bad      
##  4 Anni~ Male   green     <NA>  No Hair     180   Marvel C~ <NA>       bad      
##  5 Anti~ Male   yellow    God ~ No Hair      61   DC Comics <NA>       bad      
##  6 Blac~ Male   black     Human No Hair     188   DC Comics <NA>       bad      
##  7 Bloo~ Male   white     <NA>  No Hair      30.5 Marvel C~ <NA>       bad      
##  8 Brai~ Male   green     Andr~ No Hair     198   DC Comics green      bad      
##  9 Dark~ Male   red       New ~ No Hair     267   DC Comics grey       bad      
## 10 Dart~ Male   yellow    Cybo~ No Hair     198   George L~ <NA>       bad      
## # ... with 25 more rows, and 1 more variable: weight <dbl>
```
…
14. How many superheros have a combination of accelerated healing, durability, and super strength?

```r
superhero_powers %>% filter(accelerated_healing==T,durability==T, super_strength==T) %>% select(hero_names,accelerated_healing,durability,super_strength)
```

```
## # A tibble: 97 x 4
##    hero_names   accelerated_healing durability super_strength
##    <chr>        <lgl>               <lgl>      <lgl>         
##  1 A-Bomb       TRUE                TRUE       TRUE          
##  2 Abe Sapien   TRUE                TRUE       TRUE          
##  3 Angel        TRUE                TRUE       TRUE          
##  4 Anti-Monitor TRUE                TRUE       TRUE          
##  5 Anti-Venom   TRUE                TRUE       TRUE          
##  6 Aquaman      TRUE                TRUE       TRUE          
##  7 Arachne      TRUE                TRUE       TRUE          
##  8 Archangel    TRUE                TRUE       TRUE          
##  9 Ardina       TRUE                TRUE       TRUE          
## 10 Ares         TRUE                TRUE       TRUE          
## # ... with 87 more rows
```
…
