…
Let's pivot this data, so there is no data stored in variables, then we can use `geom_tile()` to represent the values (heartrate) by patient and treatment. 

```r
heartrate_long <- heartrate %>% 
  pivot_longer(-patient, #patient does not pivot
               names_to = "drug", 
               values_to = "heartrate"
               )
heartrate_long
```

```
## # A tibble: 30 x 3
##    patient  drug    heartrate
##    <chr>    <chr>       <dbl>
##  1 Margaret a              72
##  2 Margaret b              74
##  3 Margaret c              80
##  4 Margaret d              68
##  5 Margaret no_drug        71
##  6 Frank    a              84
##  7 Frank    b              84
##  8 Frank    c              88
##  9 Frank    d              76
## 10 Frank    no_drug        79
## # ... with 20 more rows
```
…
Now, let's instead look at how each drug changed the heartrate from the normal, using mutate

```r
heartrate_diff <- heartrate%>%
  mutate(across(c(a,b,c,d), ~ . - no_drug)) %>% 
  select(-no_drug) %>% 
    pivot_longer(-patient, #patient does not pivot
               names_to = "drug", 
               values_to = "heartrate"
               ) 
heartrate_diff
```

```
## # A tibble: 24 x 3
##    patient  drug  heartrate
##    <chr>    <chr>     <dbl>
##  1 Margaret a             1
##  2 Margaret b             3
##  3 Margaret c             9
##  4 Margaret d            -3
##  5 Frank    a             5
##  6 Frank    b             5
##  7 Frank    c             9
##  8 Frank    d            -3
##  9 Hawkeye  a            -2
## 10 Hawkeye  b             0
## # ... with 14 more rows
```
…
