…
```
## [1] 195
```

```r
poptotal %>% 
  summarize(country)
```

```
## # A tibble: 195 x 1
##    country            
##    <chr>              
##  1 Afghanistan        
##  2 Albania            
##  3 Algeria            
##  4 Andorra            
##  5 Angola             
##  6 Antigua and Barbuda
##  7 Argentina          
##  8 Armenia            
##  9 Australia          
## 10 Austria            
## # ... with 185 more rows
```
…
```
## [1] 193
```

```r
income_per_adjusted %>% 
  summarize(country)
```

```
## # A tibble: 193 x 1
##    country            
##    <chr>              
##  1 Afghanistan        
##  2 Albania            
##  3 Algeria            
##  4 Andorra            
##  5 Angola             
##  6 Antigua and Barbuda
##  7 Argentina          
##  8 Armenia            
##  9 Australia          
## 10 Austria            
## # ... with 183 more rows
```
…
```
## [1] 187
```

```r
life_exp %>% 
  summarize(country)
```

```
## # A tibble: 187 x 1
##    country            
##    <chr>              
##  1 Afghanistan        
##  2 Albania            
##  3 Algeria            
##  4 Andorra            
##  5 Angola             
##  6 Antigua and Barbuda
##  7 Argentina          
##  8 Armenia            
##  9 Australia          
## 10 Austria            
## # ... with 177 more rows
```
…
9. (3 points) Create three new objects that restrict each data set (life expectancy, population, income) to the years 1920-2020. Hint: I suggest doing this with the long form of your data. Once this is done, merge all three data sets using the code I provide below. You may need to adjust the code depending on how you have named your objects. I called mine `life_expectancy_100`, `population_100`, and `income_100`. For some of you, learning these `joins` will be important for your project.  


```r
gapminder_join <- inner_join(long_life_exp, long_poptotal, by= c("country", "year"))
gapminder_join <- inner_join(gapminder_join, long_income_per_adjusted, by= c("country", "year"))
gapminder_join
```

```
## # A tibble: 18,887 x 8
##    country     year  lifeexp numeric_year.x      pop numeric_year.y gdpper
##    <chr>       <chr>   <dbl>          <dbl>    <dbl>          <dbl>  <dbl>
##  1 Afghanistan 1920     30.6           1920 10600000           1920   1490
##  2 Afghanistan 1921     30.7           1921 10500000           1921   1520
##  3 Afghanistan 1922     30.8           1922 10300000           1922   1550
##  4 Afghanistan 1923     30.8           1923  9710000           1923   1570
##  5 Afghanistan 1924     30.9           1924  9200000           1924   1600
##  6 Afghanistan 1925     31             1925  8720000           1925   1630
##  7 Afghanistan 1926     31             1926  8260000           1926   1650
##  8 Afghanistan 1927     31.1           1927  7830000           1927   1680
##  9 Afghanistan 1928     31.1           1928  7420000           1928   1710
## 10 Afghanistan 1929     31.2           1929  7100000           1929   1740
## # ... with 18,877 more rows, and 1 more variable: numeric_year <dbl>
```
…
