…
```r
##I can't do a scatter plot with measurements for each species because there is categorical data, scatter plots are for 2 continuous variables
#I can do a scatterplot for counts and average weights instead?

idek <- deserts %>% 
  filter(weight!="NA") %>% 
  group_by(species) %>% 
  summarize(avg_weight=mean(weight), count=n()) %>% 
  print()
```

```
## # A tibble: 22 x 3
##    species     avg_weight count
##    <chr>            <dbl> <int>
##  1 albigula        159.    1152
##  2 baileyi          31.7   2810
##  3 eremicus         21.6   1260
##  4 flavus            7.92  1548
##  5 fulvescens       13.4     75
##  6 fulviventer      58.9     41
##  7 hispidus         65.6    172
##  8 intermedius      19.2      8
##  9 leucogaster      31.6    970
## 10 leucopus         19.1     36
## # ... with 12 more rows
```
…
