…
**4. What taxa are represented in the `homerange` data frame? Make a new data frame `taxa` that is restricted to taxon, common name, class, order, family, genus, species.**  

```r
taxa <- homerange %>% select(taxon,common.name,class,order,family,genus,species) %>% print()
```

```
## # A tibble: 569 x 7
##    taxon         common.name             class   order   family   genus  species
##    <fct>         <chr>                   <chr>   <fct>   <chr>    <chr>  <chr>  
##  1 lake fishes   american eel            actino~ anguil~ anguill~ angui~ rostra~
##  2 river fishes  blacktail redhorse      actino~ cyprin~ catosto~ moxos~ poecil~
##  3 river fishes  central stoneroller     actino~ cyprin~ cyprini~ campo~ anomal~
##  4 river fishes  rosyside dace           actino~ cyprin~ cyprini~ clino~ fundul~
##  5 river fishes  longnose dace           actino~ cyprin~ cyprini~ rhini~ catara~
##  6 river fishes  muskellunge             actino~ esocif~ esocidae esox   masqui~
##  7 marine fishes pollack                 actino~ gadifo~ gadidae  polla~ pollac~
##  8 marine fishes saithe                  actino~ gadifo~ gadidae  polla~ virens 
##  9 marine fishes lined surgeonfish       actino~ percif~ acanthu~ acant~ lineat~
## 10 marine fishes orangespine unicornfish actino~ percif~ acanthu~ naso   litura~
## # ... with 559 more rows
```
…
**10. As measured by the data, which snake species has the smallest homerange? Show all of your work, please. Look this species up online and tell me about it!** **Snake is found in taxon column**    

```r
snake_zones <- filter(homerange, taxon=="snakes") %>% select(genus, species, mean.hra.m2) %>% arrange(mean.hra.m2) %>% print()
```

```
## # A tibble: 41 x 3
##    genus       species      mean.hra.m2
##    <chr>       <chr>              <dbl>
##  1 bitis       schneideri          200 
##  2 carphopis   viridis             253 
##  3 thamnophis  butleri             600 
##  4 carphopis   vermis              700 
##  5 vipera      latastei           2400 
##  6 gloydius    shedaoensis        2614.
##  7 diadophis   punctatus          6476 
##  8 agkistrodon piscivorous       10655 
##  9 oocatochus  rufodorsatus      15400 
## 10 pituophis   catenifer         17400 
## # ... with 31 more rows
```
…
