…
```r
life_by_continent <- gap_clean %>% 
  group_by(continent, year) %>% 
  summarize(avg_life_exp=mean(life_exp)) %>% 
  print()
```

```
## `summarise()` has grouped output by 'continent'. You can override using the
## `.groups` argument.
```

```
## # A tibble: 60 x 3
## # Groups:   continent [5]
##    continent  year avg_life_exp
##    <fct>     <int>        <dbl>
##  1 Africa     1952         39.1
##  2 Africa     1957         41.3
##  3 Africa     1962         43.3
##  4 Africa     1967         45.3
##  5 Africa     1972         47.5
##  6 Africa     1977         49.6
##  7 Africa     1982         51.6
##  8 Africa     1987         53.3
##  9 Africa     1992         53.6
## 10 Africa     1997         53.6
## # ... with 50 more rows
```
…
**7. Which countries have had the largest population growth since 1952?**


```r
gap_clean_wide <- gap_clean %>% 
  select(year, pop, country) %>% 
  pivot_wider(names_from= "year",
              values_from = "pop")
gap_clean_wide
```

```
## # A tibble: 142 x 13
##    country `1952` `1957` `1962` `1967` `1972` `1977` `1982` `1987` `1992` `1997`
##    <fct>    <int>  <int>  <int>  <int>  <int>  <int>  <int>  <int>  <int>  <int>
##  1 Afghan~ 8.43e6 9.24e6 1.03e7 1.15e7 1.31e7 1.49e7 1.29e7 1.39e7 1.63e7 2.22e7
##  2 Albania 1.28e6 1.48e6 1.73e6 1.98e6 2.26e6 2.51e6 2.78e6 3.08e6 3.33e6 3.43e6
##  3 Algeria 9.28e6 1.03e7 1.10e7 1.28e7 1.48e7 1.72e7 2.00e7 2.33e7 2.63e7 2.91e7
##  4 Angola  4.23e6 4.56e6 4.83e6 5.25e6 5.89e6 6.16e6 7.02e6 7.87e6 8.74e6 9.88e6
##  5 Argent~ 1.79e7 1.96e7 2.13e7 2.29e7 2.48e7 2.70e7 2.93e7 3.16e7 3.40e7 3.62e7
##  6 Austra~ 8.69e6 9.71e6 1.08e7 1.19e7 1.32e7 1.41e7 1.52e7 1.63e7 1.75e7 1.86e7
##  7 Austria 6.93e6 6.97e6 7.13e6 7.38e6 7.54e6 7.57e6 7.57e6 7.58e6 7.91e6 8.07e6
##  8 Bahrain 1.20e5 1.39e5 1.72e5 2.02e5 2.31e5 2.97e5 3.78e5 4.55e5 5.29e5 5.99e5
##  9 Bangla~ 4.69e7 5.14e7 5.68e7 6.28e7 7.08e7 8.04e7 9.31e7 1.04e8 1.14e8 1.23e8
## 10 Belgium 8.73e6 8.99e6 9.22e6 9.56e6 9.71e6 9.82e6 9.86e6 9.87e6 1.00e7 1.02e7
## # ... with 132 more rows, and 2 more variables: `2002` <int>, `2007` <int>
```
…
**8. Use your results from the question above to plot population growth for the top five countries since 1952.**


```r
top_five_long <- top_five %>% 
  pivot_longer(-c(country, pop_growth),
               names_to = "year",
               values_to="pop") %>% 
  print()
```

```
## # A tibble: 60 x 4
##    country pop_growth year         pop
##    <fct>        <int> <chr>      <int>
##  1 China    762419569 1952   556263527
##  2 China    762419569 1957   637408000
##  3 China    762419569 1962   665770000
##  4 China    762419569 1967   754550000
##  5 China    762419569 1972   862030000
##  6 China    762419569 1977   943455000
##  7 China    762419569 1982  1000281000
##  8 China    762419569 1987  1084035000
##  9 China    762419569 1992  1164970000
## 10 China    762419569 1997  1230075000
## # ... with 50 more rows
```
…
**9. How does per-capita GDP growth compare between these same five countries?**

```r
gap_clean_wide_GDP <- gap_clean %>% 
  select(year, gdp_percap, country) %>% 
  pivot_wider(names_from= "year",
              values_from = "gdp_percap") %>% 
  mutate(gdp_growth=`2007`-`1952`)
gap_clean_wide_GDP 
```

```
## # A tibble: 142 x 14
##    country `1952` `1957` `1962` `1967` `1972` `1977` `1982` `1987` `1992` `1997`
##    <fct>    <dbl>  <dbl>  <dbl>  <dbl>  <dbl>  <dbl>  <dbl>  <dbl>  <dbl>  <dbl>
##  1 Afghan~   779.   821.   853.   836.   740.   786.   978.   852.   649.   635.
##  2 Albania  1601.  1942.  2313.  2760.  3313.  3533.  3631.  3739.  2497.  3193.
##  3 Algeria  2449.  3014.  2551.  3247.  4183.  4910.  5745.  5681.  5023.  4797.
##  4 Angola   3521.  3828.  4269.  5523.  5473.  3009.  2757.  2430.  2628.  2277.
##  5 Argent~  5911.  6857.  7133.  8053.  9443. 10079.  8998.  9140.  9308. 10967.
##  6 Austra~ 10040. 10950. 12217. 14526. 16789. 18334. 19477. 21889. 23425. 26998.
##  7 Austria  6137.  8843. 10751. 12835. 16662. 19749. 21597. 23688. 27042. 29096.
##  8 Bahrain  9867. 11636. 12753. 14805. 18269. 19340. 19211. 18524. 19036. 20292.
##  9 Bangla~   684.   662.   686.   721.   630.   660.   677.   752.   838.   973.
## 10 Belgium  8343.  9715. 10991. 13149. 16672. 19118. 20980. 22526. 25576. 27561.
## # ... with 132 more rows, and 3 more variables: `2002` <dbl>, `2007` <dbl>,
## #   gdp_growth <dbl>
```
…
```r
continent_pop <- gap_clean %>% 
  select(continent, year, pop) %>% 
  group_by(continent, year) %>% 
  summarize(cont_pop=sum(pop)) %>% 
  print()
```

```
## `summarise()` has grouped output by 'continent'. You can override using the
## `.groups` argument.
```

```
## # A tibble: 60 x 3
## # Groups:   continent [5]
##    continent  year  cont_pop
##    <fct>     <int>     <dbl>
##  1 Africa     1952 237640501
##  2 Africa     1957 264837738
##  3 Africa     1962 296516865
##  4 Africa     1967 335289489
##  5 Africa     1972 379879541
##  6 Africa     1977 433061021
##  7 Africa     1982 499348587
##  8 Africa     1987 574834110
##  9 Africa     1992 659081517
## 10 Africa     1997 743832984
## # ... with 50 more rows
```
…
